/home/remy/ProjetJEE/Guitou/conteneur/helloServlet/src/main/java/RoomServlet.java
/home/remy/ProjetJEE/Guitou/conteneur/helloServlet/src/main/java/HomeServlet.java
/home/remy/ProjetJEE/Guitou/conteneur/helloServlet/src/main/java/HelloServlet.java
/home/remy/ProjetJEE/Guitou/conteneur/helloServlet/src/main/java/Room.java
